{
    "places": [
        {"location": "gachibowli"},
        {"location": "test"},
        {"location" : "madhapur"},
        {"location" : "begumpet"},
        {"location" : "panjagutta"},
        {"location" : "kukatpally"},
        {"location" : "banglore"}
    ]
}

