[
    {
        "categoryId": "PrescriptionMedicine",
        "categoryName": "Prescription Medicine",
        "subcategory": []
    },
    {
        "categoryId": "OTC",
        "categoryName": "OTC",
        "subcategory": [
            [
                {
                    "subCategoryId": "Non-prescriptionMedicines",
                    "subCategoryName": "Non-prescription Medicines"
                },
                {
                    "subCategoryId": "FirstAid",
                    "subCategoryName": "First Aid"
                }
            ],
            [
                {
                    "image": "assets/img/product/p2-1.jpg"
                }
            ]
        ]
    },
    {
        "categoryId": "Non-Allopathic",
        "categoryName": "Non-Allopathic",
        "subcategory": [
            [
                {
                    "subCategoryId": "Ayurveda",
                    "subCategoryName": "Ayurveda"
                },
                {
                    "subCategoryId": "Homeopathic",
                    "subCategoryName": "Homeopathic"
                },
                {
                    "subCategoryId": "Herbal&NatureCare",
                    "subCategoryName": "Herbal & Nature Care"
                },
                {
                    "subCategoryId": "Fragrance&Oil",
                    "subCategoryName": "Fragrance & Oil"
                }
            ],
            [
                {
                    "image": "assets/img/product/p2-1.jpg"
                }
            ]
        ]
    },
    {
        "categoryId": "Beauty&PersonalCare",
        "categoryName": "Beauty & Personal Care",
        "subcategory": [
            [
                {
                    "subCategoryId": "SkinCare",
                    "subCategoryName": "Skin Care"
                },
                {
                    "subCategoryId": "HairCare",
                    "subCategoryName": "Hair Care"
                },
                {
                    "subCategoryId": "MaleGrooming",
                    "subCategoryName": "Male Grooming"
                },
                {
                    "subCategoryId": "FemaleGrooming",
                    "subCategoryName": "Female Grooming"
                }
            ],
            [
                {
                    "subCategoryId": "FaceCare",
                    "subCategoryName": "Female Grooming"
                },
                {
                    "subCategoryId": "HandCare",
                    "subCategoryName": "Hand Care"
                },
                {
                    "subCategoryId": "FootCare",
                    "subCategoryName": "Foot Care"
                },
                {
                    "subCategoryId": "OralCare",
                    "subCategoryName": "Oral Care"
                }
            ],
            [
                {
                    "subCategoryId": "SexualWellness",
                    "subCategoryName": "Sexual Wellness"
                },
                {
                    "subCategoryId": "AllBeauty&PersonalCare",
                    "subCategoryName": "All Beauty & Personal Care"
                },
                {
                    "subCategoryId": "SexualWellness",
                    "subCategoryName": "Sexual Wellness"
                }
            ],
            [
                {
                    "image": "assets/img/product/p2-1.jpg"
                }
            ]
        ]
    },
    {
        "categoryId": "FamilyCare",
        "categoryName": "Family Care",
        "subcategory": [
            [
                {
                    "subCategoryId": "MotherCare",
                    "subCategoryName": "Mother Care"
                },
                {
                    "subCategoryId": "BabyCare",
                    "subCategoryName": "Baby Care"
                },
                {
                    "subCategoryId": "ElderCare&HealthAid",
                    "subCategoryName": "Elder Care & Health Aid"
                },
                {
                    "subCategoryId": "Medical Devices",
                    "subCategoryName": "Medical Devices"
                }
            ],
            [
                {
                    "image": "assets/img/product/p2-1.jpg"
                }
            ]
        ]
    },
    {
        "categoryId": "Fitness",
        "categoryName": "Fitness",
        "subcategory": [
            [
                {
                    "subCategoryId": "Bodybuilding",
                    "subCategoryName": "Bodybuilding"
                },
                {
                    "subCategoryId": "Gymnastics",
                    "subCategoryName": "Gymnastics"
                },
                {
                    "subCategoryId": "Yoga",
                    "subCategoryName": "Yoga"
                },
                {
                    "subCategoryId": "Vitamins&Supplements",
                    "subCategoryName": "Vitamins & Supplements"
                }
            ],
            [
                {
                    "subCategoryId": "FitnessEquipment",
                    "subCategoryName": "Fitness Equipment"
                }
            ],
            [
                {
                    "image": "assets/img/product/p2-1.jpg"
                }
            ]
        ]
    },
    {
        "categoryId": "SpecializedCare",
        "categoryName": "Specialized Care",
        "subcategory": [
            [
                {
                    "subCategoryId": "Diabetes",
                    "subCategoryName": "Diabetes"
                },
                {
                    "subCategoryId": "Hypertension",
                    "subCategoryName": "Hypertension"
                },
                {
                    "subCategoryId": "Pregnancy",
                    "subCategoryName": "Pregnancy"
                },
                {
                    "subCategoryId": "Orthopedic",
                    "subCategoryName": "Orthopedic"
                }
            ],
            [
                {
                    "subCategoryId": "Pediatrics",
                    "subCategoryName": "Pediatrics"
                }
            ],
            [
                {
                    "image": "assets/img/product/p2-1.jpg"
                }
            ]
        ]
    },
    {
        "categoryId": "Nutrition&Dietary",
        "categoryName": "Nutrition & Dietary",
        "subcategory": [
            [
                {
                    "subCategoryId": "Organic",
                    "subCategoryName": "Organic"
                },
                {
                    "subCategoryId": "WeightManagement",
                    "subCategoryName": "Weight Management"
                },
                {
                    "subCategoryId": "ProteinSupplements",
                    "subCategoryName": "Protein Supplements"
                },
                {
                    "subCategoryId": "DiabetesManagement",
                    "subCategoryName": "Diabetes Management"
                }
            ],
            [
                {
                    "subCategoryId": "LifestyleManagement",
                    "subCategoryName": "Lifestyle Management"
                }
            ],
            [{
                "image": "assets/img/product/p2-1.jpg"
            }]
        ]
    },
    {
        "categoryId": "Surgical",
        "categoryName": "Nutrition & Dietary",
        "subcategory": []
    },
    {
        "categoryId": "Offers",
        "categoryName": "Offers",
        "subcategory": [
            [
                {
                    "subCategoryId": "Today'sDeals",
                    "subCategoryName": "Today's Deals"
                },
                {
                    "subCategoryId": "StoreDeals",
                    "subCategoryName": "Store Deals"
                },
                {
                    "subCategoryId": "ComboDeals",
                    "subCategoryName": "Combo Deals"
                },
                {
                    "subCategoryId": "CouponCodes",
                    "subCategoryName": "Coupon Codes"
                }
            ],
            [
                {
                    "subCategoryId": "AllOffers",
                    "subCategoryName": "All Offers"
                }
            ],
            [
                {
                    "image": "assets/img/product/p2-1.jpg"
                }
            ]
        ]
    }
]
